{
    "uri"      : "127.0.0.1", // TODO
    "port"     : 80,
    "database" : {
        // Connection
        "host"     : "127.0.0.1",
        "port"     : 3306,
        "name"     : "assassin",
        "username" : "root",
        "password" : "awildpassword",
        // Config
        "force"    : false, // Drops all tables
        "populate" : false  // Populates tables with data
    },
    "sql" : {
        // Query logging to console
        "logging" : true
    },
    "url" : {
        "api" : "/api"
    },
    "auth" : {
        "token" : {
            // TODO use (in code ofc) process.env.AUTH_TOKEN_SECRET
            "secret" : "supersecretprivatesecret",
            // Time (from present) the token is valid
            "expiration" : 604800 // 1 week, in seconds
        },
        "salt_sync_rounds" : 20 // Default is 10
    }
}